[{
  "rows": 5,
  "column": 4,
  "node": 4,
  "tileSpriteIndex": [
    0,
    1,
    2,
    3
  ],
  "NodeArrangement": [
    ["A", "A", "A", "A"],
    ["B", "B", "A", "B"],
    ["B", "B", "B", "B"],
    ["C", "D", "D", "D"],
    ["C", "C", "C", "D"]
  ]
},

  {
    "rows": 5,
    "column": 5,
    "node": 4,
    "tileSpriteIndex": [
      4,
      0,
      3,
      1
    ],
    "NodeArrangement": [
      ["A", "A", "B", "B", "B"],
      ["A", "A", "A", "B", "D"],
      ["A", "B", "B", "B", "D"],
      ["C", "C", "C", "D", "D"],
      ["C", "C", "D", "D", "D"]
    ]
  },

  {
    "rows": 3,
    "column": 5,
    "node": 4,
    "tileSpriteIndex": [
      2,
      0,
      5,
      1
    ],
    "NodeArrangement": [
      ["A", "A", "D", "D", "D"],
      ["B", "A", "A", "C", "D"],
      ["B", "B", "B", "C", "C"]
    ]
  },


  {
    "rows": 4,
    "column": 5,
    "node": 4,
    "tileSpriteIndex": [
      3,
      2,
      0,
      1
    ],
    "NodeArrangement": [
      ["A", "B", "B", "B", "B"],
      ["A", "A", "B", "D", "D"],
      ["C", "A", "D", "D", "D"],
      ["C", "C", "C", "D", "D"]
    ]
  },
  {
    "rows": 5,
    "column": 5,
    "node": 4,
    "tileSpriteIndex": [
      1,
      0,
      3,
      2
    ],
    "NodeArrangement": [
      ["A", "C", "C", "B", "B"],
      ["A", "C", "C", "B", "B"],
      ["A", "A", "c", "B", "D"],
      ["A", "C", "C", "D", "D"],
      ["A", "C", "C", "D", "D"]
    ]
  },
  {
    "rows": 5,
    "column": 6,
    "node": 5,
    "tileSpriteIndex": [
      4,
      0,
      3,
      1,
      2
    ],
    "NodeArrangement": [
      ["A", "A", "B", "B", "B", "E"],
      ["A", "A", "A", "B", "D", "E"],
      ["A", "B", "B", "B", "D", "E"],
      ["C", "C", "C", "D", "D", "E"],
      ["C", "C", "D", "D", "D", "E"]
    ]
  },
  {
    "rows": 6,
    "column": 5,
    "node": 4,
    "tileSpriteIndex": [
      4,
      0,
      3,
      1
    ],
    "NodeArrangement": [
      ["A", "A", "B", "B", "B"],
      ["A", "A", "A", "B", "D"],
      ["A", "B", "B", "B", "D"],
      ["C", "C", "C", "D", "D"],
      ["C", "C", "D", "D", "D"],
      ["C", "C", "D", "D", "D"]
    ]
  },
  {
    "rows": 6,
    "column": 5,
    "node": 4,
    "tileSpriteIndex": [
      4,
      0,
      3,
      1
    ],
    "NodeArrangement": [
      ["A", "A", "B", "B", "B"],
      ["A", "A", "A", "B", "D"],
      ["A", "B", "B", "B", "D"],
      ["C", "C", "C", "D", "D"],
      ["C", "C", "D", "D", "D"],
      ["C", "C", "D", "D", "D"]
    ]
  },
  {
    "rows": 6,
    "column": 5,
    "node": 4,
    "tileSpriteIndex": [
      4,
      0,
      3,
      1
    ],
    "NodeArrangement": [
      ["A", "A", "B", "B", "B"],
      ["A", "A", "A", "B", "D"],
      ["A", "B", "B", "B", "D"],
      ["C", "C", "C", "D", "D"],
      ["C", "C", "D", "D", "D"],
      ["C", "C", "D", "D", "D"]
    ]
  },
  {
    "rows": 6,
    "column": 5,
    "node": 4,
    "tileSpriteIndex": [
      4,
      0,
      3,
      1
    ],
    "NodeArrangement": [
      ["A", "A", "B", "B", "B"],
      ["A", "A", "A", "B", "D"],
      ["A", "B", "B", "B", "D"],
      ["C", "C", "C", "D", "D"],
      ["C", "C", "D", "D", "D"],
      ["C", "C", "D", "D", "D"]
    ]
  }
]